…
## What is mean total number of steps taken per day?
#### 1. Calculate the total number of steps taken per day

```r
library(dplyr)
stepsperday <- data %>% 
     group_by(date) %>% 
     summarise(total = sum(steps, na.rm = TRUE)) %>% 
     print
```

```
## # A tibble: 61 x 2
##    date       total
##    <date>     <int>
##  1 2012-10-01     0
##  2 2012-10-02   126
##  3 2012-10-03 11352
##  4 2012-10-04 12116
##  5 2012-10-05 13294
##  6 2012-10-06 15420
##  7 2012-10-07 11015
##  8 2012-10-08     0
##  9 2012-10-09 12811
## 10 2012-10-10  9900
## # ... with 51 more rows
```
…
```
## [1] 2304
```

#### 2. Create a new dataset that is equal to the original dataset but with the missing data filled in.

```r
complete <- data %>%
     group_by(interval) %>%
     mutate(steps = replace(steps, is.na(steps), mean(steps, na.rm = TRUE))) %>%
     print
```

```
## # A tibble: 17,568 x 3
## # Groups:   interval [288]
##     steps date       interval
##     <dbl> <date>        <int>
##  1 1.72   2012-10-01        0
##  2 0.340  2012-10-01        5
##  3 0.132  2012-10-01       10
##  4 0.151  2012-10-01       15
##  5 0.0755 2012-10-01       20
##  6 2.09   2012-10-01       25
##  7 0.528  2012-10-01       30
##  8 0.868  2012-10-01       35
##  9 0      2012-10-01       40
## 10 1.47   2012-10-01       45
## # ... with 17,558 more rows
```
…
